{
	"info": {
		"_postman_id": "995172f8-8850-4fcd-a4c9-e1498ef91988",
		"name": "fif-common-api-embossing-request",
		"schema": "https://schema.getpostman.com/json/collection/v2.1.0/collection.json"
	},
	"item": [
		{
			"name": "error-embossing",
			"request": {
				"method": "POST",
				"header": [
					{
						"key": "x-flow-country",
						"value": "CL"
					},
					{
						"key": "x-flow-commerce",
						"value": "BANCO"
					},
					{
						"key": "x-flow-channel",
						"value": "WEB"
					},
					{
						"key": "Content-Type",
						"value": "application/json"
					},
					{
						"key": "accept-version",
						"value": "v1"
					}
				],
				"body": {
					"mode": "raw",
					"raw": "{\n  \"tipoDocumento\": \"RUT\",\n  \"numeroDocumento\": \"16008216-k\",\n  \"codigoProducto\": \"1\",\n  \"codigoSubProducto\": \"526\",\n  \"codigoTipoDireccion\": \"1\",\n  \"fechaActivacion\": \"2018-01-31\",\n  \"fechaEmision\": \"2018-01-01\",\n  \"tipoPlastico\": \"1\",\n  \"identificadorProducto\": \"13730026184\",\n  \"cuentaCorrienteCargo\": \"23730026036\",\n  \"cupoTotal\": \"250000\",\n  \"codigoEmpleado\": \"5210\",\n  \"codigoSucursal\": \"588\",\n  \"diaVencimiento\": \"10\",\n  \"fechaDesde\": \"2018-01-01\",\n  \"fechaHasta\": \"2018-01-01\"\n}"
				},
				"url": {
					"raw": "http://localhost:3053/api/fif/embossing/request/",
					"protocol": "http",
					"host": [
						"localhost"
					],
					"port": "3053",
					"path": [
						"api",
						"fif",
						"embossing",
						"request",
						""
					]
				}
			},
			"response": []
		},
		{
			"name": "ok-embossing",
			"request": {
				"method": "POST",
				"header": [
					{
						"key": "x-flow-country",
						"value": "CL"
					},
					{
						"key": "x-flow-commerce",
						"value": "BANCO"
					},
					{
						"key": "x-flow-channel",
						"value": "WEB"
					},
					{
						"key": "Content-Type",
						"value": "application/json"
					},
					{
						"key": "accept-version",
						"value": "v1"
					}
				],
				"body": {
					"mode": "raw",
					"raw": "{\n  \"tipoDocumento\": \"RUT\",\n  \"numeroDocumento\": \"14216541-4\",\n  \"codigoProducto\": \"1\",\n  \"codigoSubProducto\": \"526\",\n  \"codigoTipoDireccion\": \"1\",\n  \"fechaActivacion\": \"2018-01-31\",\n  \"fechaEmision\": \"2018-01-01\",\n  \"tipoPlastico\": \"1\",\n  \"identificadorProducto\": \"13730026184\",\n  \"cuentaCorrienteCargo\": \"23730026036\",\n  \"cupoTotal\": \"250000\",\n  \"codigoEmpleado\": \"5210\",\n  \"codigoSucursal\": \"588\",\n  \"diaVencimiento\": \"10\",\n  \"fechaDesde\": \"2018-01-01\",\n  \"fechaHasta\": \"2018-01-01\"\n}"
				},
				"url": {
					"raw": "http://localhost:3053/api/fif/embossing/request/",
					"protocol": "http",
					"host": [
						"localhost"
					],
					"port": "3053",
					"path": [
						"api",
						"fif",
						"embossing",
						"request",
						""
					]
				}
			},
			"response": []
		}
	]
}